…
## Your Turn 6

Gather the 5th through 60th columns of `who` into columns named `codes`
and `n`.

Then select just the `county`, `year`, `codes` and `n` variables.

``` r
who %>%
  pivot_longer(names_to = "codes", values_to = "n", cols=5:60) %>%
  select(-iso2, -iso3)
```

    ## # A tibble: 405,440 × 4
    ##    country      year codes            n
    ##    <chr>       <int> <chr>        <int>
    ##  1 Afghanistan  1980 new_sp_m014     NA
    ##  2 Afghanistan  1980 new_sp_m1524    NA
    ##  3 Afghanistan  1980 new_sp_m2534    NA
    ##  4 Afghanistan  1980 new_sp_m3544    NA
    ##  5 Afghanistan  1980 new_sp_m4554    NA
    ##  6 Afghanistan  1980 new_sp_m5564    NA
    ##  7 Afghanistan  1980 new_sp_m65      NA
    ##  8 Afghanistan  1980 new_sp_f014     NA
    ##  9 Afghanistan  1980 new_sp_f1524    NA
    ## 10 Afghanistan  1980 new_sp_f2534    NA
    ## # … with 405,430 more rows

Run the following code

``` r
who %>%
  pivot_longer(names_to ="codes", values_to = "n", cols=5:60) %>%
  select(-iso2, -iso3) %>%
  separate(codes, c("new", "type", "sexage"), sep = "_") %>% 
  select(-new)
```

    ## # A tibble: 405,440 × 5
    ##    country      year type  sexage     n
    ##    <chr>       <int> <chr> <chr>  <int>
    ##  1 Afghanistan  1980 sp    m014      NA
    ##  2 Afghanistan  1980 sp    m1524     NA
    ##  3 Afghanistan  1980 sp    m2534     NA
    ##  4 Afghanistan  1980 sp    m3544     NA
    ##  5 Afghanistan  1980 sp    m4554     NA
    ##  6 Afghanistan  1980 sp    m5564     NA
    ##  7 Afghanistan  1980 sp    m65       NA
    ##  8 Afghanistan  1980 sp    f014      NA
    ##  9 Afghanistan  1980 sp    f1524     NA
    ## 10 Afghanistan  1980 sp    f2534     NA
    ## # … with 405,430 more rows
…
Separate the `sexage` column into `sex` and `age` columns.

*(Hint: Be sure to remove each `_________` before running the code)*

``` r
who %>%
  pivot_longer(names_to ="codes", values_to = "n", cols=5:60) %>%
  select(-iso2, -iso3) %>%
  separate(codes, c("new", "type", "sexage"), sep = "_") %>%
  select(-new) %>% 
  separate(sexage, c("sex", "age"), sep = 1)
```

    ## # A tibble: 405,440 × 6
    ##    country      year type  sex   age       n
    ##    <chr>       <int> <chr> <chr> <chr> <int>
    ##  1 Afghanistan  1980 sp    m     014      NA
    ##  2 Afghanistan  1980 sp    m     1524     NA
    ##  3 Afghanistan  1980 sp    m     2534     NA
    ##  4 Afghanistan  1980 sp    m     3544     NA
    ##  5 Afghanistan  1980 sp    m     4554     NA
    ##  6 Afghanistan  1980 sp    m     5564     NA
    ##  7 Afghanistan  1980 sp    m     65       NA
    ##  8 Afghanistan  1980 sp    f     014      NA
    ##  9 Afghanistan  1980 sp    f     1524     NA
    ## 10 Afghanistan  1980 sp    f     2534     NA
    ## # … with 405,430 more rows
…
